<svg width="382" height="300" viewBox="0 0 382 300" fill="none" xmlns="http://www.w3.org/2000/svg">
<g opacity="0.08">
<path  opacity="0.08" d="M21.5792 186.904C21.5792 186.904 32.3175 244.773 86.7817 276.132C141.237 307.491 208.933 300.01 263.958 295.391C318.984 290.772 356.113 253.56 355.312 205.997C354.511 158.434 310.813 151.1 280.144 101.485C249.475 51.8797 248.831 34.1298 196.078 8.78858C143.326 -16.5434 71.6451 14.8892 40.9854 76.7608C10.3257 138.632 21.5792 186.904 21.5792 186.904Z" fill="#00B533"/>
<path opacity="0.7" d="M21.5792 186.904C21.5792 186.904 32.3175 244.773 86.7817 276.132C141.237 307.491 208.933 300.01 263.958 295.391C318.984 290.772 356.113 253.56 355.312 205.997C354.511 158.434 310.813 151.1 280.144 101.485C249.475 51.8797 248.831 34.1298 196.078 8.78858C143.326 -16.5434 71.6451 14.8892 40.9854 76.7608C10.3257 138.632 21.5792 186.904 21.5792 186.904Z" fill="#00B533"/>
</g>
<path  d="M357.452 30.089C357.452 30.089 357.452 24.3932 349.475 16.4062C341.497 8.4192 336.362 3.88281 336.362 3.88281C336.362 3.88281 332.36 16.9951 339.785 24.9821C345.233 30.595 351.149 35.7479 357.452 40.3763V30.089Z" fill="#00B533"/>
<path d="M345.88 65.7089C345.88 65.7089 345.88 60.0039 337.893 52.0262C329.906 44.0484 324.781 39.4844 324.781 39.4844C324.781 39.4844 320.797 52.5967 328.204 60.5744C333.651 66.1966 339.568 71.3403 345.88 75.9687V65.7089Z" fill="#00B533"/>
<path d="M357.004 39.8062C357.004 39.8062 357.593 34.138 366.381 27.0436C375.168 19.9491 380.698 15.9648 380.698 15.9648C380.698 15.9648 383.275 29.4268 375.067 36.5856C369.049 41.5913 362.626 46.0909 355.863 50.02L357.004 39.8062Z" fill="#00B533"/>
<path d="M342.961 81.8553C342.961 81.8553 344.166 76.27 353.635 70.1417C363.094 64.0134 369.093 60.6641 369.093 60.6641C369.093 60.6641 370.299 74.3284 361.336 80.5763C354.812 84.9287 347.948 88.7197 340.789 91.9219L342.961 81.8553Z" fill="#00B533"/>
<path d="M345.586 127.701C345.586 127.701 345.586 122.005 353.573 114.018C361.56 106.031 366.676 101.477 366.676 101.477C366.676 101.477 370.66 114.589 363.253 122.576C357.806 128.207 351.898 133.369 345.586 138.016V127.701Z" fill="#00B533"/>
<path d="M345.456 138.89C345.456 138.89 346.266 133.249 339.503 124.222C332.74 115.196 328.314 109.941 328.314 109.941C328.314 109.941 322.498 122.354 328.7 131.308C333.301 137.638 338.417 143.582 344.012 149.057L345.456 138.89Z" fill="#00B533"/>
<path d="M337.59 172.06C337.59 172.06 337.59 166.355 345.568 158.378C353.545 150.4 358.689 145.836 358.689 145.836C358.689 145.836 362.673 158.948 355.266 166.926C349.81 172.539 343.902 177.692 337.59 182.32V172.06Z" fill="#00B533"/>
<path d="M342.915 202.13C342.915 202.13 341.48 196.619 347.167 186.865C352.853 177.111 356.681 171.406 356.681 171.406C356.681 171.406 363.858 183.092 358.715 192.69C354.859 199.49 350.442 205.958 345.52 212.022L342.915 202.13Z" fill="#00B533"/>
<path d="M358.218 28.6445C357.813 34.5796 357.086 40.487 356.028 46.3392C352.872 62.6444 344.986 73.1711 341.83 87.8844C338.674 102.607 347.737 121.581 345.308 140.49C342.879 159.399 335.517 169.926 337.625 182.541C339.732 195.157 350.774 229.341 350.774 229.341" stroke="#2E353A" stroke-width="0.604269" stroke-linecap="round" stroke-linejoin="round"/>
<path d="M356.875 43.595L365.478 36.9883" stroke="#2E353A" stroke-width="0.604269" stroke-linecap="round" stroke-linejoin="round"/>
<path d="M357.27 35.9981L353.672 29.5938" stroke="#2E353A" stroke-width="0.604269" stroke-linecap="round" stroke-linejoin="round"/>
<path d="M342.273 87.2675C342.273 87.2675 349.524 81.8662 356.867 76.4648" stroke="#2E353A" stroke-width="0.604269" stroke-linecap="round" stroke-linejoin="round"/>
<path d="M345.879 75.9688C345.879 75.9688 339.833 64.2092 333.07 56.4062" stroke="#2E353A" stroke-width="0.604269" stroke-linecap="round" stroke-linejoin="round"/>
<path d="M345.879 135.817C349.983 128.235 355.173 121.297 361.273 115.215" stroke="#2E353A" stroke-width="0.604269" stroke-linecap="round" stroke-linejoin="round"/>
<path d="M344.47 143.821C342.28 138.677 339.676 133.727 336.667 129.016C332.471 122.814 331.836 122.004 331.836 122.004" stroke="#2E353A" stroke-width="0.604269" stroke-linecap="round" stroke-linejoin="round"/>
<path d="M337.59 182.542C339.421 178.015 341.583 173.635 344.077 169.439C346.571 165.546 349.377 161.866 352.478 158.434" stroke="#2E353A" stroke-width="0.604269" stroke-linecap="round" stroke-linejoin="round"/>
<path d="M345.51 212.058C345.096 207.734 345.841 203.372 347.672 199.434C350.672 193.637 354.067 186.036 355.466 183.027" stroke="#2E353A" stroke-width="0.604269" stroke-linecap="round" stroke-linejoin="round"/>
<path d="M305.189 106.258C305.189 106.258 304.572 102.632 308.704 96.8078C312.835 90.9832 315.568 87.5234 315.568 87.5234C315.568 87.5234 319.497 95.308 315.715 101.114C312.909 105.227 309.753 109.101 306.302 112.69L305.189 106.258Z" fill="#00B533"/>
<path d="M316.314 127.33C316.314 127.33 315.697 123.704 319.829 117.88C323.96 112.055 326.693 108.586 326.693 108.586C326.693 108.586 330.622 116.38 326.84 122.195C324.025 126.308 320.878 130.173 317.427 133.761L316.314 127.33Z" fill="#00B533"/>
<path d="M306.551 112.303C306.551 112.303 305.557 108.807 299.3 105.319C293.043 101.823 289.086 99.918 289.086 99.918C289.086 99.918 288.93 108.641 294.847 112.23C299.162 114.723 303.68 116.84 308.345 118.57L306.551 112.303Z" fill="#00B533"/>
<path d="M319.894 137.151C319.894 137.151 318.541 133.783 311.935 130.968C305.328 128.152 301.215 126.68 301.215 126.68C301.215 126.68 301.979 135.366 308.245 138.329C312.8 140.335 317.511 141.945 322.332 143.16L319.894 137.151Z" fill="#00B533"/>
<path d="M323.232 166.189C323.232 166.189 322.606 162.563 316.726 158.468C310.856 154.374 307.147 152.027 307.147 152.027C307.147 152.027 306.071 160.677 311.583 164.882C315.613 167.808 319.882 170.403 324.345 172.621L323.232 166.189Z" fill="#00B533"/>
<path d="M324.523 173.183C324.523 173.183 323.4 169.723 326.658 163.337C329.924 156.942 332.133 153.16 332.133 153.16C332.133 153.16 337.12 160.31 334.212 166.613C332.013 171.076 329.446 175.354 326.538 179.394L324.523 173.183Z" fill="#00B533"/>
<path d="M334.544 202.068C334.544 202.068 334.958 198.443 340.589 193.998C346.22 189.554 349.781 187.023 349.781 187.023C349.781 187.023 351.355 195.599 346.082 200.108C342.227 203.264 338.123 206.098 333.789 208.564L334.544 202.068Z" fill="#00B533"/>
<path d="M333.053 193.125C333.053 193.125 332.437 189.499 326.566 185.414C320.696 181.328 316.987 178.973 316.987 178.973C316.987 178.973 315.911 187.622 321.422 191.827C325.453 194.753 329.713 197.339 334.176 199.566L333.053 193.125Z" fill="#00B533"/>
<path d="M332.979 212.557C332.979 212.557 333.282 208.932 328.654 203.457C324.025 197.982 321.017 194.789 321.017 194.789C321.017 194.789 317.778 202.896 322.047 208.352C325.203 212.208 328.672 215.796 332.427 219.072L332.979 212.557Z" fill="#00B533"/>
<path d="M304.574 105.387C305.476 109.067 306.571 112.702 307.878 116.263C311.623 126.136 317.714 131.878 321.294 140.767C324.873 149.656 321.294 162.519 324.818 174.132C328.342 185.744 334.148 191.523 334.194 199.666C334.24 207.81 331.038 230.446 331.038 230.446" stroke="#2E353A" stroke-width="0.604269" stroke-linecap="round" stroke-linejoin="round"/>
<path d="M307.011 114.659L300.91 111.457" stroke="#2E353A" stroke-width="0.604269" stroke-linecap="round" stroke-linejoin="round"/>
<path d="M305.934 109.948L307.507 105.531" stroke="#2E353A" stroke-width="0.604269" stroke-linecap="round" stroke-linejoin="round"/>
<path d="M320.904 140.434C320.904 140.434 315.806 137.84 310.57 135.254" stroke="#2E353A" stroke-width="0.604269" stroke-linecap="round" stroke-linejoin="round"/>
<path d="M317.426 133.765C318.926 129.026 320.904 124.453 323.333 120.109" stroke="#2E353A" stroke-width="0.604269" stroke-linecap="round" stroke-linejoin="round"/>
<path d="M323.934 171.297C320.53 166.99 316.518 163.199 312.027 160.043" stroke="#2E353A" stroke-width="0.604269" stroke-linecap="round" stroke-linejoin="round"/>
<path d="M325.672 176.174C326.491 172.714 327.586 169.318 328.957 166.033C330.917 161.699 331.202 161.129 331.202 161.129" stroke="#2E353A" stroke-width="0.604269" stroke-linecap="round" stroke-linejoin="round"/>
<path d="M333.918 205.876C335.906 203.419 338.105 201.137 340.488 199.057C342.006 197.935 343.432 196.692 344.757 195.34" stroke="#2E353A" stroke-width="0.604269" stroke-linecap="round" stroke-linejoin="round"/>
<path d="M334.191 199.645C332.562 197.004 330.722 194.492 328.707 192.127C326.719 189.938 324.557 187.913 322.238 186.082" stroke="#2E353A" stroke-width="0.604269" stroke-linecap="round" stroke-linejoin="round"/>
<path d="M332.425 219.069C332.222 216.309 331.284 213.659 329.71 211.386C327.198 208.074 324.235 203.675 323.039 201.945" stroke="#2E353A" stroke-width="0.604269" stroke-linecap="round" stroke-linejoin="round"/>
<path d="M314.711 226.523H366.93V266.109C366.93 268.115 365.311 269.734 363.305 269.734H318.401C316.395 269.734 314.775 268.115 314.775 266.109V226.523H314.711Z" fill="#2E353A"/>
<path d="M297.433 186.196C297.433 186.196 302.255 174.133 299.227 149.104C297.875 138.136 298.841 115.592 283.833 114.856C267.822 114.083 261.28 115.666 245.186 115.85C187.299 116.503 144.732 122.291 109.435 118.877C81.0666 116.116 56.5903 111.644 46.5054 121.729C36.4204 131.814 37.3038 153.309 38.224 157.468C39.1441 161.628 45.6773 190.143 45.6773 190.143L295.961 189.011L297.433 186.196Z" fill="#979797" stroke="#2E353A" stroke-width="0.92016" stroke-linecap="round" stroke-linejoin="round"/>
<path d="M48.9436 178.992C48.9436 178.992 44.122 159.668 36.227 154.433C28.3321 149.197 18.0263 154.865 9.47798 163.202C0.929701 171.538 -1.50872 181.403 2.01549 197.873C5.5397 214.344 15.8179 238.655 18.9004 249.623C21.983 260.591 21.9646 266.287 32.2703 269.793C42.5761 273.299 52.4494 273.52 58.8077 264.751C65.166 255.981 63.4085 215.632 58.3661 200.505C53.3236 185.378 48.9436 178.992 48.9436 178.992Z" fill="#AFAFAF" stroke="#2E353A" stroke-width="0.92016" stroke-linecap="round" stroke-linejoin="round"/>
<path d="M48.0236 264.068C43.662 255.731 30.5405 196.307 30.7246 188.201C30.9086 180.094 24.3663 166.485 16.2597 165.39C9.57011 164.47 4.22398 170.911 2.54929 173.156C-0.0639634 179.597 -0.211189 187.391 2.0064 197.844C5.5122 214.287 5.07053 239.141 8.14386 250.1C11.2172 261.059 11.2172 266.764 21.5138 270.279C28.2954 272.58 45.6404 272.957 51.1613 270.794C50.278 268.476 49.229 266.23 48.0236 264.068Z" fill="#888888" stroke="#2E353A" stroke-width="0.92016" stroke-linecap="round" stroke-linejoin="round"/>
<path d="M284.238 178.625C284.238 178.625 289.335 159.301 297.672 154.065C306.008 148.83 316.894 154.498 325.921 162.835C334.948 171.171 337.506 181.035 333.797 197.479C330.089 213.922 319.204 238.26 315.965 249.228C312.726 260.197 312.726 265.892 301.84 269.398C290.955 272.904 280.529 273.079 273.812 264.356C267.095 255.633 268.954 215.238 274.281 200.11C279.609 184.983 284.238 178.625 284.238 178.625Z" fill="#AFAFAF" stroke="#2E353A" stroke-width="0.92016" stroke-linecap="round" stroke-linejoin="round"/>
<path d="M285.165 264.915C289.766 256.478 303.688 196.327 303.458 188.11C303.228 179.893 310.175 166.136 318.742 165.023C325.809 164.103 331.449 170.544 333.216 172.881C335.977 179.396 336.151 187.291 333.796 197.873C330.115 214.527 324.428 239.169 321.18 250.266C317.932 261.364 317.941 267.133 307.056 270.685C299.897 273.022 287.733 273.915 281.871 271.725C282.81 269.378 283.914 267.096 285.165 264.915Z" fill="#888888" stroke="#2E353A" stroke-width="0.92016" stroke-linecap="round" stroke-linejoin="round"/>
<path d="M303.569 216.02C303.569 216.02 298.048 250.065 294.579 261.466C291.11 272.867 292.168 272.867 286.252 273.327C280.335 273.787 55.724 273.134 48.7124 272.039C41.7007 270.944 37.9649 265.681 35.9865 258.236C34.0082 250.792 32.0391 216.949 32.0391 216.949L294.147 216.029L303.569 216.02Z" fill="#979797" stroke="#2E353A" stroke-width="0.92016" stroke-linecap="round" stroke-linejoin="round"/>
<path d="M32.0569 222.312C33.0783 224.769 35.3143 226.518 37.9459 226.913C42.5467 227.76 161.303 229.02 165.094 229.02C168.885 229.02 265.713 229.02 281.291 227.76C296.87 226.499 304.801 224.429 303.568 215.991C302.335 207.553 302.768 214.289 302.768 214.289L29.4805 217.656L32.0569 222.312Z" fill="#2E353A"/>
<path d="M49.5874 177.897C49.5874 177.897 32.7025 189.298 27.8808 194.561C23.0592 199.825 25.6817 203.984 26.1233 207.931C26.565 211.879 28.5342 220.648 34.2391 223.721C39.9441 226.795 110.76 225.479 152.02 226.795C193.28 228.11 281.9 226.537 292.868 223.905C303.837 221.274 306.441 207.683 307.094 199.981C307.747 192.279 299.88 181.578 295.5 180.244C291.12 178.909 254.645 178.744 214.075 179.618C173.505 180.492 154.881 184.072 108.616 183.151C62.35 182.231 60.114 175.919 49.5874 177.897Z" fill="#AFAFAF"/>
<path d="M26.1252 207.929C26.5669 211.876 28.536 220.645 34.241 223.718C39.946 226.792 110.761 225.476 152.021 226.792C193.281 228.108 281.902 226.534 292.87 223.902C303.839 221.271 310.409 210.753 311.071 203.079C311.135 201.92 311.007 200.76 310.685 199.647C309.139 201.193 306.157 199.518 302.642 199.012C294.83 197.89 212.623 203.006 151.092 203.006C84.2885 203.006 62.5175 203.006 29.4562 196.647C24.5333 195.727 27.9195 194.559 27.9195 194.559C23.0519 199.822 25.6835 203.981 26.1252 207.929Z" fill="#979797"/>
<path d="M49.5874 177.897C49.5874 177.897 32.7025 189.298 27.8808 194.561C23.0592 199.825 25.6817 203.984 26.1233 207.931C26.565 211.879 28.5342 220.648 34.2391 223.721C39.9441 226.795 110.76 225.479 152.02 226.795C193.28 228.11 281.9 226.537 292.868 223.905C303.837 221.274 306.441 207.683 307.094 199.981C307.747 192.279 299.88 181.578 295.5 180.244C291.12 178.909 254.645 178.744 214.075 179.618C173.505 180.492 154.881 184.072 108.616 183.151C62.35 182.231 60.114 175.919 49.5874 177.897Z" stroke="#2E353A" stroke-width="0.92016" stroke-linecap="round" stroke-linejoin="round"/>
<path d="M168.941 119.789L168.564 181.918C168.564 181.918 165.849 198.895 166.19 201.242C166.53 203.588 166.53 226.702 166.53 226.702" stroke="#2E353A" stroke-width="0.92016" stroke-linecap="round" stroke-linejoin="round"/>
<path d="M58.4497 148.349C58.4497 148.349 59.922 148.165 63.0505 144.484C66.1791 140.803 69.6757 138.043 72.979 138.236C76.2824 138.429 70.2186 140.813 70.2186 140.813C70.2186 140.813 75.9143 139.34 79.963 141.365C84.0117 143.389 78.3068 145.22 78.3068 145.22C78.3068 145.22 84.9227 147.244 84.5546 150.005C84.1866 152.765 82.8984 152.029 74.9942 152.029C67.09 152.029 63.0321 154.044 59.7379 152.949C56.4438 151.854 54.217 151.477 58.4497 148.349Z" fill="#2E353A" stroke="#2E353A" stroke-width="0.92016" stroke-linecap="round" stroke-linejoin="round"/>
<path d="M47.4357 112.664C47.4357 112.664 52.7727 115.48 54.5118 118.295C56.2509 121.111 54.5118 123.577 58.5329 124.037C60.778 124.304 63.741 124.258 63.741 126.42C63.7778 127.442 63.7042 128.454 63.5201 129.457C63.5201 129.457 65.4709 137.26 65.25 138.999C65.0292 140.738 57.6679 142.901 57.6679 142.901C57.4379 144.566 57.8243 146.259 58.7537 147.667C60.272 149.618 67.4216 155.47 68.5074 156.335C69.5932 157.2 47.4817 159.804 47.4817 159.804C47.4817 159.804 42.5037 149.397 35.7773 145.716C29.0509 142.036 25.8028 142.247 25.5911 138.567C25.3795 134.886 31.655 121.442 37.5072 117.099C43.3594 112.756 47.4357 112.664 47.4357 112.664Z" fill="white" stroke="#2E353A" stroke-width="0.92016" stroke-linecap="round" stroke-linejoin="round"/>
<path d="M55.0538 126.246C54.7317 126.412 54.3912 126.568 54.0508 126.697C54.06 126.761 54.0784 126.826 54.106 126.881C54.4096 127.626 54.8881 128.132 55.1826 128.022C55.477 127.912 55.4586 127.203 55.1826 126.458C55.1458 126.384 55.0998 126.311 55.0538 126.246Z" fill="#2E353A"/>
<path d="M53.2578 128.16C54.2056 128.224 55.1625 128.031 56.0183 127.617L53.2578 128.16Z" fill="white"/>
<path d="M53.2578 128.16C54.2056 128.224 55.1625 128.031 56.0183 127.617" stroke="#2E353A" stroke-width="0.46008" stroke-linecap="round" stroke-linejoin="round"/>
<path d="M57.6649 142.902C54.702 143.574 51.6562 143.767 48.6289 143.473C48.6289 143.473 55.0148 147.393 57.8305 147.107L57.6649 142.902Z" fill="#2E353A" stroke="#2E353A" stroke-width="0.92016" stroke-linecap="round" stroke-linejoin="round"/>
<path d="M53.8481 124.02L55.0628 125.989C54.0414 126.817 52.8636 127.406 51.5938 127.728" fill="white"/>
<path d="M53.8481 124.02L55.0628 125.989C54.0414 126.817 52.8636 127.406 51.5938 127.728" stroke="#2E353A" stroke-width="0.92016" stroke-linecap="round" stroke-linejoin="round"/>
<path d="M56.543 133.406C56.543 133.406 57.3803 135.201 60.8585 133.885L56.543 133.406Z" fill="white"/>
<path d="M56.543 133.406C56.543 133.406 57.3803 135.201 60.8585 133.885" stroke="#2E353A" stroke-width="0.92016" stroke-linecap="round" stroke-linejoin="round"/>
<path d="M52.2301 120.698C52.2301 120.698 49.5985 120.22 48.2734 123.339L52.2301 120.698Z" fill="white"/>
<path d="M52.2301 120.698C52.2301 120.698 49.5985 120.22 48.2734 123.339" stroke="#2E353A" stroke-width="0.92016" stroke-linecap="round" stroke-linejoin="round"/>
<path d="M50.1949 110.871C50.1949 110.871 48.3546 121.296 46.5143 127.655C44.6739 134.013 42.3183 137.841 41.7202 140.242C41.1221 142.644 44.1126 148.625 43.1557 151.146C42.1987 153.667 41.3154 149.95 35.7944 146.831C30.2734 143.711 25.7279 140.721 23.087 138.917C11.5574 131.05 31.1936 109.914 39.9903 108.948C48.7871 107.982 50.6734 108.23 50.1949 110.871Z" fill="#2E353A"/>
<path d="M50.1949 110.871C50.1949 110.871 48.3546 121.296 46.5143 127.655C44.6739 134.013 42.3183 137.841 41.7202 140.242C41.1221 142.644 44.1126 148.625 43.1557 151.146C42.1987 153.667 41.3154 149.95 35.7944 146.831C30.2734 143.711 25.7279 140.721 23.087 138.917C11.5574 131.05 31.1936 109.914 39.9903 108.948C48.7871 107.982 50.6734 108.23 50.1949 110.871Z" stroke="#2E353A" stroke-width="0.92016" stroke-linecap="round" stroke-linejoin="round"/>
<path d="M44.8045 137.363C44.8045 137.363 40.7282 133.765 38.207 134.842C35.6857 135.918 37.7285 140.482 39.2835 140.841C40.8386 141.2 42.5225 141.559 44.3168 140.721" fill="white"/>
<path d="M44.8045 137.363C44.8045 137.363 40.7282 133.765 38.207 134.842C35.6857 135.918 37.7285 140.482 39.2835 140.841C40.8386 141.2 42.5225 141.559 44.3168 140.721" stroke="#2E353A" stroke-width="0.92016" stroke-linecap="round" stroke-linejoin="round"/>
<path opacity="0.3" d="M16.5648 160.616C16.5648 160.616 28.2417 166.128 30.5421 172.109C32.8425 178.09 33.3025 184.531 37.4433 186.831C41.584 189.132 48.9453 193.272 57.6868 195.113C62.8213 196.217 68.0754 196.677 73.3295 196.493C73.3295 196.493 89.4323 197.413 101.394 197.413C113.356 197.413 131.76 193.733 131.76 193.733C131.76 193.733 145.102 195.113 153.383 178.55C161.665 161.987 192.49 138.983 194.791 121.5C194.791 121.5 157.524 139.443 152.003 147.264C146.482 155.086 109.216 175.329 89.8924 175.329C70.569 175.329 48.0251 160.607 35.6029 152.325C23.1808 144.044 15.9391 152.353 16.5648 160.616Z" fill="black"/>
<path d="M58.2851 176.987C58.2851 176.987 50.7306 161.877 45.1636 153.605C39.5967 145.333 34.5542 141.376 28.4351 138.147C22.3161 134.917 18.9115 133.831 15.8197 132.386C12.728 130.942 11.8631 131.669 11.5042 137.963C11.1453 144.256 9.66387 155.225 16.5375 160.617C23.4111 166.009 26.4292 165.834 30.5699 167.813C34.7106 169.791 36.8638 175.174 40.2776 182.195C43.6914 189.215 54.3008 189.206 58.4415 188.847C62.5822 188.489 60.8063 181.118 58.2851 176.987Z" fill="white" stroke="#2E353A" stroke-width="0.92016" stroke-linecap="round" stroke-linejoin="round"/>
<path d="M129.668 155.104C129.668 155.104 138.538 128.254 141.897 125.659C145.256 123.064 175.924 114.138 187.693 111.47C199.462 108.801 214.783 97.327 216.467 95.6431C218.151 93.9592 221.988 92.0453 220.782 96.8393C219.577 101.633 218.381 104.035 215.979 106.961C213.577 109.887 215.059 112.234 213.587 114.874C212.114 117.515 209.51 117.506 205.434 115.114C201.358 112.721 199.683 112.712 194.889 116.31C190.095 119.908 181.215 128.539 171.627 131.41C162.039 134.281 158.92 134.768 158.92 134.768C158.92 134.768 154.604 155.15 148.853 164.02C143.102 172.891 140.94 176.967 131.591 175.292C122.242 173.617 126.319 159.226 126.797 157.809C127.276 156.392 129.668 155.104 129.668 155.104Z" fill="#2E353A" stroke="#2E353A" stroke-width="0.92016" stroke-linecap="round" stroke-linejoin="round"/>
<path d="M213.586 114.827C215.022 112.186 213.586 109.784 215.979 106.913C218.371 104.042 219.576 101.641 220.782 96.7915C221.987 91.9422 218.141 93.9206 216.466 95.5953C209.795 101.052 202.434 105.597 194.566 109.122C195.781 110.759 196.756 112.554 197.474 114.459C200.465 112.729 202.195 113.106 205.433 115.02C209.51 117.458 212.151 117.458 213.586 114.827Z" fill="white" stroke="#2E353A" stroke-width="0.92016" stroke-linecap="round" stroke-linejoin="round"/>
<path d="M216.469 95.6441C216.23 95.8741 215.982 96.0949 215.715 96.2974C216.874 97.65 218.475 98.561 220.233 98.8646C220.417 98.2389 220.601 97.5672 220.785 96.8403C221.981 92.0554 218.144 93.9694 216.469 95.6441Z" fill="#A5A5A5" stroke="#2E353A" stroke-width="0.92016" stroke-linecap="round" stroke-linejoin="round"/>
<path d="M111.449 190.822C111.449 190.822 136.625 195.423 145.974 192.028C155.322 188.632 159.159 178.354 161.8 170.928C164.441 163.503 164.92 149.59 166.355 145.513C167.791 141.437 168.269 140.241 168.269 140.241C168.269 140.241 179.311 135.198 185.752 131.849C192.193 128.5 197.503 115.544 201.34 112.664C205.177 109.784 205.655 113.584 207.781 111.468C209.906 109.351 213.771 100.674 214.489 95.1623C215.206 89.6506 211.903 86.5312 210.468 86.5312C209.032 86.5312 209.271 89.4113 206.87 92.9724C204.468 96.5334 200.88 103.757 197.282 106.158C193.684 108.56 176.661 118.378 170.192 121.976C163.723 125.574 155.322 127.497 151.007 134.922C146.691 142.348 139.505 157.926 138.539 159.62C137.803 160.862 137.002 162.058 136.146 163.217C133.561 164.23 130.911 165.113 128.233 165.849C123.2 167.294 117.191 166.576 114.329 169.447C111.468 172.318 111.449 190.822 111.449 190.822Z" fill="#2E353A" stroke="#2E353A" stroke-width="0.92016" stroke-linecap="round" stroke-linejoin="round"/>
<path d="M210.469 86.5312C209.033 86.5312 209.272 89.4114 206.871 92.9724C204.469 96.5334 200.881 103.757 197.283 106.158C196.556 106.637 195.286 107.419 193.676 108.394C195.516 109.186 197.356 111.21 198.691 115.682C199.427 114.541 200.329 113.51 201.359 112.627C205.196 109.747 205.675 113.547 207.8 111.431C209.926 109.314 213.79 100.637 214.508 95.1255C215.226 89.6138 211.904 86.5312 210.469 86.5312Z" fill="white" stroke="#2E353A" stroke-width="0.92016" stroke-linecap="round" stroke-linejoin="round"/>
<path d="M210.47 86.5312C209.311 86.5312 209.237 88.3716 208.004 91.0032C210.36 91.8866 212.577 93.1012 214.592 94.6103C215.025 89.4482 211.859 86.5312 210.47 86.5312Z" fill="#A5A5A5" stroke="#2E353A" stroke-width="0.92016" stroke-linecap="round" stroke-linejoin="round"/>
<path d="M96.3857 148.875C94.8214 149.685 93.3952 150.725 92.1438 151.967C90.4783 154.414 88.9508 156.954 87.543 159.558L92.6959 164.969L96.4225 151.967L98.3548 150.55L96.3857 148.875Z" fill="#76B63D" stroke="#2E353A" stroke-width="0.92016" stroke-linecap="round" stroke-linejoin="round"/>
<path d="M49.6508 153.786C49.6508 153.786 62.4226 151.265 70.3268 151.09C78.231 150.915 80.7614 149.829 83.4575 152.341C86.1535 154.853 93.3492 162.592 94.6098 163.852C95.8704 165.113 118.534 162.592 118.534 162.592C118.534 162.592 120.687 167.984 119.252 176.983C118.442 182.274 115.994 187.188 112.24 191.006C112.24 191.006 97.1219 193.215 87.0645 192.442C67.8148 190.97 60.7111 184.022 55.8527 178.087C50.9942 172.152 47.102 159.353 46.9547 157.016C46.8075 154.678 49.6508 153.786 49.6508 153.786Z" fill="#00B533" stroke="#2E353A" stroke-width="0.92016" stroke-linecap="round" stroke-linejoin="round"/>
<path d="M97.7861 152.94C97.7861 152.94 88.4372 154.145 87.4711 156.777C86.5049 159.408 91.3081 177.876 92.7528 178.861C94.1974 179.845 97.7861 177.416 97.7861 177.416C104.632 178.198 111.533 178.354 118.407 177.894C130.636 177.177 134.703 171.453 136.148 171.186C137.592 170.92 141.42 169.981 141.181 168.785C140.942 167.589 137.344 156.077 132.071 152.001C126.799 147.925 118.646 146.968 111.211 149.369C106.804 150.786 102.322 151.974 97.7861 152.94Z" fill="white" stroke="#2E353A" stroke-width="0.92016" stroke-linecap="round" stroke-linejoin="round"/>
<path d="M94.0703 152.703L96.0579 161.941L124.997 158.279L119.246 149.832L94.0703 152.703Z" fill="white" stroke="#2E353A" stroke-width="0.92016" stroke-linecap="round" stroke-linejoin="round"/>
<path d="M110.125 153.272L110.64 154.579L112.435 154.33L111.947 153.023L110.125 153.272Z" fill="#2E353A"/>
<path d="M112.592 154.773L110.816 155.022L111.442 156.605L113.19 156.365L112.592 154.773Z" fill="#2E353A"/>
<path d="M101.769 157.956L103.241 157.753L102.726 156.152L101.281 156.355L101.769 157.956Z" fill="#2E353A"/>
<path d="M112.418 152.958L112.896 154.265L114.672 154.016L114.194 152.719L112.418 152.958Z" fill="#2E353A"/>
<path d="M102.598 154.292L103.039 155.644L105.11 155.35L104.64 154.016L102.598 154.292Z" fill="#2E353A"/>
<path d="M107.641 153.612L108.165 154.928L110.171 154.643L109.656 153.336L107.641 153.612Z" fill="#2E353A"/>
<path d="M105.109 153.953L105.569 155.287L107.695 154.993L107.171 153.668L105.109 153.953Z" fill="#2E353A"/>
<path d="M110.972 156.678L110.346 155.086L108.34 155.371L108.966 156.954L110.972 156.678Z" fill="#2E353A"/>
<path d="M113.816 156.741L114.111 157.532L115.878 157.311L115.574 156.492L113.816 156.741Z" fill="#2E353A"/>
<path d="M116.999 154.156L115.297 154.395L115.877 155.987L117.662 155.739L116.999 154.156Z" fill="#2E353A"/>
<path d="M113.059 154.709L113.647 156.301L115.414 156.053L114.825 154.461L113.059 154.709Z" fill="#2E353A"/>
<path d="M118.683 156.972L120.947 156.696L120.468 155.812L118.324 156.116L118.683 156.972Z" fill="#2E353A"/>
<path d="M103.859 158.13L104.062 158.756L106.206 158.489L105.976 157.836L103.859 158.13Z" fill="#2E353A"/>
<path d="M105.267 155.793L103.188 156.087L103.712 157.688L105.819 157.394L105.267 155.793Z" fill="#2E353A"/>
<path d="M107.871 155.434L105.727 155.728L106.288 157.329L108.496 157.016L107.871 155.434Z" fill="#2E353A"/>
<path d="M109.141 157.395L109.417 158.103L111.432 157.855L111.147 157.109L109.141 157.395Z" fill="#2E353A"/>
<path d="M114.506 152.213L116.088 151.992L115.868 151.477L114.312 151.697L114.506 152.213Z" fill="#2E353A"/>
<path d="M104.952 153.512L106.995 153.236L106.82 152.785L104.805 153.08L104.952 153.512Z" fill="#2E353A"/>
<path d="M109.951 152.83L111.782 152.581L111.598 152.094L109.758 152.361L109.951 152.83Z" fill="#2E353A"/>
<path d="M107.464 153.171L109.479 152.895L109.295 152.426L107.289 152.72L107.464 153.171Z" fill="#2E353A"/>
<path d="M102.451 153.853L104.484 153.577L104.337 153.145L102.312 153.439L102.451 153.853Z" fill="#2E353A"/>
<path d="M101.991 153.918L101.853 153.504L100.473 153.706L100.592 154.102L101.991 153.918Z" fill="#2E353A"/>
<path d="M103.592 158.812L103.389 158.195L101.898 158.407L102.082 158.996L103.592 158.812Z" fill="#2E353A"/>
<path d="M116.557 151.93L118.241 151.709L117.955 151.176L116.336 151.406L116.557 151.93Z" fill="#2E353A"/>
<path d="M101.145 155.914L102.58 155.712L102.138 154.359L100.73 154.553L101.145 155.914Z" fill="#2E353A"/>
<path d="M117.846 156.18L116.043 156.428L116.337 157.256L118.205 157.026L117.846 156.18Z" fill="#2E353A"/>
<path d="M112.25 152.519L114.036 152.28L113.852 151.773L112.066 152.031L112.25 152.519Z" fill="#2E353A"/>
<path d="M108.67 157.457L106.434 157.77L106.673 158.432L108.946 158.156L108.67 157.457Z" fill="#2E353A"/>
<path d="M113.356 156.805L111.617 157.044L111.912 157.798L113.642 157.587L113.356 156.805Z" fill="#2E353A"/>
<path d="M114.66 152.654L115.129 153.943L116.804 153.713L116.27 152.434L114.66 152.654Z" fill="#2E353A"/>
<path d="M119.392 153.816L117.469 154.083L118.131 155.675L120.238 155.381L119.392 153.816Z" fill="#2E353A"/>
<path d="M117.285 153.65L119.153 153.383L118.481 152.141L116.742 152.371L117.285 153.65Z" fill="#2E353A"/>
<path d="M124.993 158.279L126.613 131.668L120.319 128.07L119.242 149.832L124.993 158.279Z" fill="white" stroke="#2E353A" stroke-width="0.92016" stroke-linecap="round" stroke-linejoin="round"/>
<path d="M121.322 130.637L120.484 149.564L123.705 154.165L124.855 133.002L121.322 130.637Z" fill="#00B533" stroke="#2E353A" stroke-width="0.92016" stroke-linecap="round" stroke-linejoin="round"/>
<path d="M108.488 145.772C109.289 145.533 110.154 145.745 110.752 146.334C112.003 147.337 114.718 149.582 114.377 150.143C114.037 150.704 113.586 150.704 112.905 150.033C112.224 149.361 108.488 145.772 108.488 145.772Z" fill="white" stroke="#2E353A" stroke-width="0.92016" stroke-linecap="round" stroke-linejoin="round"/>
<path d="M105.652 145.781C105.652 145.781 107.714 145.008 108.486 145.781C109.259 146.554 114.283 150.547 113.897 151.302C113.511 152.057 112.866 151.431 112.057 151.431C111.247 151.431 105.652 145.781 105.652 145.781Z" fill="white" stroke="#2E353A" stroke-width="0.92016" stroke-linecap="round" stroke-linejoin="round"/>
<path d="M95.3549 151.32C95.3549 151.32 93.947 150.289 96.9007 148.486C99.8544 146.682 103.471 145.137 104.759 145.265C106.047 145.394 112.12 151.449 112.12 151.449C112.267 151.863 112.047 152.323 111.632 152.47C111.623 152.47 111.614 152.479 111.605 152.479C110.832 152.737 105.937 149.13 105.044 149.13C104.152 149.13 101.179 150.97 100.278 151.191C99.376 151.412 97.2872 152.995 95.3549 151.32Z" fill="white" stroke="#2E353A" stroke-width="0.92016" stroke-linecap="round" stroke-linejoin="round"/>
<path d="M100.473 149.391C100.473 149.391 107.292 151.967 107.678 151.967C108.064 151.967 107.549 152.998 106.39 153.126C105.23 153.255 102.405 151.709 101.375 152.206C100.344 152.703 98.2647 152.556 96.7281 152.51C95.1914 152.464 95.1914 150.67 95.1914 150.67" fill="white"/>
<path d="M100.473 149.391C100.473 149.391 107.292 151.967 107.678 151.967C108.064 151.967 107.549 152.998 106.39 153.126C105.23 153.255 102.405 151.709 101.375 152.206C100.344 152.703 98.2647 152.556 96.7281 152.51C95.1914 152.464 95.1914 150.67 95.1914 150.67" stroke="#2E353A" stroke-width="0.92016" stroke-linecap="round" stroke-linejoin="round"/>
<path d="M59.1832 154.507C59.1832 154.507 53.2482 150.366 47.3132 152.17C41.3782 153.973 42.8228 162.062 47.1384 170.509C51.4539 178.956 68.8909 195.5 71.771 197.304C74.6511 199.107 77.3472 197.304 79.5004 193.89C81.6535 190.476 86.512 170.15 87.9566 166.911C89.4013 163.672 90.1098 161.703 90.1098 161.703C91.7109 161.298 93.2292 160.626 94.6094 159.724L98.7409 156.485C98.7409 156.485 105.182 153.789 105.753 153.43C106.323 153.072 105.578 152.51 104.832 152.51H96.7902C93.1924 152.51 88.5087 156.467 86.8985 158.261C85.2882 160.056 73.9518 180.916 73.9518 180.916L59.3581 160.976" fill="#00B533"/>
<path d="M59.1832 154.507C59.1832 154.507 53.2482 150.366 47.3132 152.17C41.3782 153.973 42.8228 162.062 47.1384 170.509C51.4539 178.956 68.8909 195.5 71.771 197.304C74.6511 199.107 77.3472 197.304 79.5004 193.89C81.6535 190.476 86.512 170.15 87.9566 166.911C89.4013 163.672 90.1098 161.703 90.1098 161.703C91.7109 161.298 93.2292 160.626 94.6094 159.724L98.7409 156.485C98.7409 156.485 105.182 153.789 105.753 153.43C106.323 153.072 105.578 152.51 104.832 152.51H96.7902C93.1924 152.51 88.5087 156.467 86.8985 158.261C85.2882 160.056 73.9518 180.916 73.9518 180.916L59.3581 160.976" stroke="#2E353A" stroke-width="0.92016" stroke-linecap="round" stroke-linejoin="round"/>
<path d="M98.7428 156.463C98.7428 156.463 105.184 153.767 105.754 153.408C106.325 153.05 105.58 152.488 104.834 152.488H96.7921C93.1943 152.488 88.5106 156.445 86.9004 158.239C85.3361 160.54 83.8822 162.923 82.5664 165.371L87.8205 167.266C87.8757 167.119 87.9309 166.981 87.9861 166.87C89.4216 163.631 90.1393 161.662 90.1393 161.662C91.7404 161.257 93.2587 160.586 94.6389 159.684L98.7428 156.463Z" fill="white" stroke="#2E353A" stroke-width="0.92016" stroke-linecap="round" stroke-linejoin="round"/>
</svg>
